trackforce.vivado/trackforce.sim/sim_1/behav/xsim/iverilog.vcd
$date
   Mon Dec  4 10:55:52 2023
$end

$version
  2023.2
  $dumpfile ("iverilog.vcd") 
$end

$timescale
  1ps
$end

$scope module top_testbench $end
$var reg 1 ! clk_i [0:0] $end
$var wire 1 " reset_i [0:0] $end
$var reg 4 # sw [3:0] $end
$var reg 8 $ gps_rx_i [7:0] $end
$var reg 8 % imu_rx_x_i [7:0] $end
$var reg 8 & imu_rx_y_i [7:0] $end
$var reg 8 ' imu_rx_z_i [7:0] $end
$var reg 1 ( gps_valid_i [0:0] $end
$var wire 8 ) gps_vel_o [7:0] $end
$var wire 8 * gforce_x_o [7:0] $end
$var wire 8 + gforce_y_o [7:0] $end
$var wire 8 , je [7:0] $end
$var wire 4 - led [3:0] $end
$var integer 32 . baud_rate [31:0] $end
$var integer 32 / bit_time [31:0] $end
$var integer 32 0 delay_time [31:0] $end
$scope module cg $end
$var reg 1 1 clk_o $end
$upscope $end
$scope module rg $end
$var reg 1 2 clk_i [0:0] $end
$var reg 1 3 async_reset_o $end
$var reg 1 4 ctr_lo_r [0:0] $end
$var reg 4 5 ctr_hi_r [3:0] $end
$var reg 1 6 phase_lo_r [0:0] $end
$var reg 1 7 phase_hi_r [0:0] $end
$var wire 1 8 in_phase_1 $end
$var wire 1 9 in_phase_2 $end
$upscope $end
$scope module dut $end
$var wire 1 : clk_i $end
$var wire 1 " rst_i $end
$var wire 4 ; sw [3:0] $end
$var wire 8 < gps_rx_i [7:0] $end
$var wire 8 = imu_rx_x_i [7:0] $end
$var wire 8 > imu_rx_y_i [7:0] $end
$var wire 8 ? imu_rx_z_i [7:0] $end
$var wire 1 @ gps_valid_i [0:0] $end
$var wire 8 ) gps_vel_o [7:0] $end
$var wire 8 * gforce_x_o [7:0] $end
$var wire 8 + gforce_y_o [7:0] $end
$var wire 8 , je [7:0] $end
$var wire 4 - led [3:0] $end
$var reg 1 A gps_valid_r [0:0] $end
$var wire 8 B gps_filtered_w [7:0] $end
$var wire 8 C ag_filtered_w [7:0] $end
$var reg 8 D gps_vel_test_r [7:0] $end
$var reg 8 E test_counter_r [7:0] $end
$var wire 8 F gps_vel_w [7:0] $end
$scope module sevenSegCtl_inst $end
$var wire 1 : clk_i [0:0] $end
$var wire 1 " rst_i [0:0] $end
$var wire 8 F vel_i [7:0] $end
$var wire 1 G vel_valid_i [0:0] $end
$var wire 8 , vel_seg_o [7:0] $end
$var wire 8 H vel_seg_muxed [7:0] $end
$scope module sevenSegVel_inst $end
$var wire 8 H num_i [7:0] $end
$var wire 1 : digsel_i [0:0] $end
$var wire 8 , seg_o [7:0] $end
$var reg 7 I ssd_l_r [6:0] $end
$var reg 7 J ssd_r_r [6:0] $end
$var reg 7 K ssd_r [6:0] $end
$var reg 1 L dp_r [0:0] $end
$var reg 4 M tenth_r [3:0] $end
$var reg 4 N ones_r [3:0] $end
$var integer 32 O decimal_int [31:0] $end
$upscope $end
$upscope $end
$upscope $end
$upscope $end
$enddefinitions $end

#0
$dumpvars
0!
0"
b0 #
b0 $
b0 %
b0 &
b0 '
0(
bz )
bz *
bz +
b111111 ,
bz000 -
b1001011000000000 .
b11010 /
b1101 0
01
02
03
04
b0 5
06
07
08
09
0:
b0 ;
b0 <
b0 =
b0 >
b0 ?
0@
xA
bz B
bz C
bx D
bx E
b0 F
xG
b0 H
b111111 I
b111111 J
b111111 K
0L
b0 M
b0 N
b0 O
$end

#5000
1!
b10111111 ,
11
12
1:
0A
0G

#10000
0!
1"
b111111 ,
01
02
13
14
16
18
0:

#15000
1!
b10111111 ,
11
12
1:
b0 D
b0 E

#20000
0!
b111111 ,
01
02
b1 5
0:

#25000
1!
b10111111 ,
11
12
1:

#30000
0!
b111111 ,
01
02
b10 5
0:

#35000
1!
b10111111 ,
11
12
1:

#40000
0!
b111111 ,
01
02
b11 5
0:

#45000
1!
b10111111 ,
11
12
1:

#50000
0!
b111111 ,
01
02
b100 5
0:

#55000
1!
b10111111 ,
11
12
1:

#60000
0!
b111111 ,
01
02
b101 5
0:

#65000
1!
b10111111 ,
11
12
1:

#70000
0!
b111111 ,
01
02
b110 5
0:

#75000
1!
b10111111 ,
11
12
1:

#80000
0!
b111111 ,
01
02
b111 5
0:

#85000
1!
b10111111 ,
11
12
1:

#90000
0!
b111111 ,
01
02
b1000 5
0:

#95000
1!
b10111111 ,
11
12
1:

#100000
0!
b111111 ,
01
02
b1001 5
0:

#105000
1!
b10111111 ,
11
12
1:

#110000
0!
0"
b111111 ,
01
02
03
b1010 5
17
19
0:

#115000
1!
b10111111 ,
11
12
1:

#120000
0!
b111111 ,
01
02
0:

#125000
1!
b10111111 ,
11
12
1:

#130000
0!
b111111 ,
01
02
0:

#135000
1!
b10111111 ,
11
12
1:

#140000
0!
b111111 ,
01
02
0:

#145000
1!
b10111111 ,
11
12
1:

#150000
0!
b111111 ,
01
02
0:

#155000
1!
b10111111 ,
11
12
1:

#160000
0!
b111111 ,
01
02
0:

#165000
1!
b10111111 ,
11
12
1:

#170000
0!
b111111 ,
01
02
0:

#175000
1!
b10111111 ,
11
12
1:

#180000
0!
b111111 ,
01
02
0:

#185000
1!
b10111111 ,
11
12
1:

#190000
0!
b111111 ,
01
02
0:

#195000
1!
b10111111 ,
11
12
1:

#200000
0!
b111111 ,
01
02
0:

#205000
1!
b10111111 ,
11
12
1:

#210000
0!
b111111 ,
01
02
0:

#215000
1!
b10111111 ,
11
12
1:

#220000
0!
b111111 ,
01
02
0:

#225000
1!
b10111111 ,
11
12
1:

#230000
0!
b111111 ,
01
02
0:

#235000
1!
b10111111 ,
11
12
1:

#240000
0!
b111111 ,
01
02
0:

#245000
1!
b10111111 ,
11
12
1:

#250000
0!
b111111 ,
01
02
0:

#255000
1!
b10111111 ,
11
12
1:

#260000
0!
b111111 ,
01
02
0:

#265000
1!
b10111111 ,
11
12
1:

#270000
0!
b111111 ,
01
02
0:

#275000
1!
b10111111 ,
11
12
1:

#280000
0!
b111111 ,
01
02
0:

#285000
1!
b10111111 ,
11
12
1:

#290000
0!
b111111 ,
01
02
0:

#295000
1!
b10111111 ,
11
12
1:

#300000
0!
b111111 ,
01
02
0:

#305000
1!
b10111111 ,
11
12
1:

#310000
0!
b111111 ,
01
02
0:

#315000
1!
b10111111 ,
11
12
1:

#320000
0!
b111111 ,
01
02
0:

#325000
1!
b10111111 ,
11
12
1:

#330000
0!
b111111 ,
01
02
0:

#335000
1!
b10111111 ,
11
12
1:

#340000
0!
b111111 ,
01
02
0:

#345000
1!
b10111111 ,
11
12
1:

#350000
0!
b111111 ,
01
02
0:

#355000
1!
b10111111 ,
11
12
1:

#360000
0!
b111111 ,
01
02
0:

#365000
1!
b10111111 ,
11
12
1:

#370000
0!
b111111 ,
01
02
0:

#375000
1!
b10111111 ,
11
12
1:

#380000
0!
b111111 ,
01
02
0:

#385000
1!
b10111111 ,
11
12
1:

#390000
0!
b111111 ,
01
02
0:

#395000
1!
b10111111 ,
11
12
1:

#400000
0!
b111111 ,
01
02
0:

#405000
1!
b10111111 ,
11
12
1:

#410000
0!
b111111 ,
01
02
0:

#415000
1!
b10111111 ,
11
12
1:

#420000
0!
b111111 ,
01
02
0:

#425000
1!
b10111111 ,
11
12
1:

#430000
0!
b111111 ,
01
02
0:

#435000
1!
b10111111 ,
11
12
1:

#440000
0!
b111111 ,
01
02
0:

#445000
1!
b10111111 ,
11
12
1:

#450000
0!
b111111 ,
01
02
0:

#455000
1!
b10111111 ,
11
12
1:

#460000
0!
b111111 ,
01
02
0:

#465000
1!
b10111111 ,
11
12
1:

#470000
0!
b111111 ,
01
02
0:

#475000
1!
b10111111 ,
11
12
1:

#480000
0!
b111111 ,
01
02
0:

#485000
1!
b10111111 ,
11
12
1:

#490000
0!
b111111 ,
01
02
0:

#495000
1!
b10111111 ,
11
12
1:

#500000
0!
b1 #
b111111 ,
bz001 -
01
02
0:
b1 ;

#505000
1!
b10111111 ,
11
12
1:
1A
b1 E
1G

#510000
0!
b111111 ,
01
02
0:

#515000
1!
b10111111 ,
11
12
1:
b10 E

#520000
0!
b111111 ,
01
02
0:

#525000
1!
b10111111 ,
11
12
1:
b11 E

#530000
0!
b111111 ,
01
02
0:

#535000
1!
b10111111 ,
11
12
1:
b100 E

#540000
0!
b111111 ,
01
02
0:

#545000
1!
b10111111 ,
11
12
1:
b101 E

#550000
0!
b111111 ,
01
02
0:

#555000
1!
b10111111 ,
11
12
1:
b110 E

#560000
0!
b111111 ,
01
02
0:

#565000
1!
b10111111 ,
11
12
1:
b111 E

#570000
0!
b111111 ,
01
02
0:

#575000
1!
b10111111 ,
11
12
1:
b1000 E

#580000
0!
b111111 ,
01
02
0:

#585000
1!
b10111111 ,
11
12
1:
b1001 E

#590000
0!
b111111 ,
01
02
0:

#595000
1!
b10111111 ,
11
12
1:
b1010 E

#600000
0!
b111111 ,
01
02
0:

#605000
1!
b10111111 ,
11
12
1:
b1011 E

#610000
0!
b111111 ,
01
02
0:

#615000
1!
b10111111 ,
11
12
1:
b1100 E

#620000
0!
b111111 ,
01
02
0:

#625000
1!
b10111111 ,
11
12
1:
b1101 E

#630000
0!
b111111 ,
01
02
0:

#635000
1!
b10111111 ,
11
12
1:
b1110 E

#640000
0!
b111111 ,
01
02
0:

#645000
1!
b10111111 ,
11
12
1:
b1111 E

#650000
0!
b111111 ,
01
02
0:

#655000
1!
b10111111 ,
11
12
1:
b10000 E

#660000
0!
b111111 ,
01
02
0:

#665000
1!
b10111111 ,
11
12
1:
b10001 E

#670000
0!
b111111 ,
01
02
0:

#675000
1!
b10111111 ,
11
12
1:
b10010 E

#680000
0!
b111111 ,
01
02
0:

#685000
1!
b10111111 ,
11
12
1:
b10011 E

#690000
0!
b111111 ,
01
02
0:

#695000
1!
b10111111 ,
11
12
1:
b10100 E

#700000
0!
b111111 ,
01
02
0:

#705000
1!
b10111111 ,
11
12
1:
b10101 E

#710000
0!
b111111 ,
01
02
0:

#715000
1!
b10111111 ,
11
12
1:
b10110 E

#720000
0!
b111111 ,
01
02
0:

#725000
1!
b10111111 ,
11
12
1:
b10111 E

#730000
0!
b111111 ,
01
02
0:

#735000
1!
b10111111 ,
11
12
1:
b11000 E

#740000
0!
b111111 ,
01
02
0:

#745000
1!
b10111111 ,
11
12
1:
b11001 E

#750000
0!
b111111 ,
01
02
0:

#755000
1!
b10111111 ,
11
12
1:
b11010 E

#760000
0!
b111111 ,
01
02
0:

#765000
1!
b10111111 ,
11
12
1:
b11011 E

#770000
0!
b111111 ,
01
02
0:

#775000
1!
b10111111 ,
11
12
1:
b11100 E

#780000
0!
b111111 ,
01
02
0:

#785000
1!
b10111111 ,
11
12
1:
b11101 E

#790000
0!
b111111 ,
01
02
0:

#795000
1!
b10111111 ,
11
12
1:
b11110 E

#800000
0!
b111111 ,
01
02
0:

#805000
1!
b10111111 ,
11
12
1:
b11111 E

#810000
0!
b111111 ,
01
02
0:

#815000
1!
b10111111 ,
11
12
1:
b100000 E

#820000
0!
b111111 ,
01
02
0:

#825000
1!
b10111111 ,
11
12
1:
b100001 E

#830000
0!
b111111 ,
01
02
0:

#835000
1!
b10111111 ,
11
12
1:
b100010 E

#840000
0!
b111111 ,
01
02
0:

#845000
1!
b10111111 ,
11
12
1:
b100011 E

#850000
0!
b111111 ,
01
02
0:

#855000
1!
b10111111 ,
11
12
1:
b100100 E

#860000
0!
b111111 ,
01
02
0:

#865000
1!
b10111111 ,
11
12
1:
b100101 E

#870000
0!
b111111 ,
01
02
0:

#875000
1!
b10111111 ,
11
12
1:
b100110 E

#880000
0!
b111111 ,
01
02
0:

#885000
1!
b10111111 ,
11
12
1:
b100111 E

#890000
0!
b111111 ,
01
02
0:

#895000
1!
b10111111 ,
11
12
1:
b101000 E

#900000
0!
b111111 ,
01
02
0:

#905000
1!
b10111111 ,
11
12
1:
b101001 E

#910000
0!
b111111 ,
01
02
0:

#915000
1!
b10111111 ,
11
12
1:
b101010 E

#920000
0!
b111111 ,
01
02
0:

#925000
1!
b10111111 ,
11
12
1:
b101011 E

#930000
0!
b111111 ,
01
02
0:

#935000
1!
b10111111 ,
11
12
1:
b101100 E

#940000
0!
b111111 ,
01
02
0:

#945000
1!
b10111111 ,
11
12
1:
b101101 E

#950000
0!
b111111 ,
01
02
0:

#955000
1!
b10111111 ,
11
12
1:
b101110 E

#960000
0!
b111111 ,
01
02
0:

#965000
1!
b10111111 ,
11
12
1:
b101111 E

#970000
0!
b111111 ,
01
02
0:

#975000
1!
b10111111 ,
11
12
1:
b110000 E

#980000
0!
b111111 ,
01
02
0:

#985000
1!
b10111111 ,
11
12
1:
b110001 E

#990000
0!
b111111 ,
01
02
0:

#995000
1!
b10111111 ,
11
12
1:
b110010 E

#1000000
0!
b111111 ,
01
02
0:

#1005000
1!
b10111111 ,
11
12
1:
b110011 E

#1010000
0!
b111111 ,
01
02
0:

#1015000
1!
b10111111 ,
11
12
1:
b110100 E

#1020000
0!
b111111 ,
01
02
0:

#1025000
1!
b10111111 ,
11
12
1:
b110101 E

#1030000
0!
b111111 ,
01
02
0:

#1035000
1!
b10111111 ,
11
12
1:
b110110 E

#1040000
0!
b111111 ,
01
02
0:

#1045000
1!
b10111111 ,
11
12
1:
b110111 E

#1050000
0!
b111111 ,
01
02
0:

#1055000
1!
b10111111 ,
11
12
1:
b111000 E

#1060000
0!
b111111 ,
01
02
0:

#1065000
1!
b10111111 ,
11
12
1:
b111001 E

#1070000
0!
b111111 ,
01
02
0:

#1075000
1!
b10111111 ,
11
12
1:
b111010 E

#1080000
0!
b111111 ,
01
02
0:

#1085000
1!
b10111111 ,
11
12
1:
b111011 E

#1090000
0!
b111111 ,
01
02
0:

#1095000
1!
b10111111 ,
11
12
1:
b111100 E

#1100000
0!
b111111 ,
01
02
0:

#1105000
1!
b10111111 ,
11
12
1:
b111101 E

#1110000
0!
b111111 ,
01
02
0:

#1115000
1!
b10111111 ,
11
12
1:
b111110 E

#1120000
0!
b111111 ,
01
02
0:

#1125000
1!
b10111111 ,
11
12
1:
b111111 E

#1130000
0!
b111111 ,
01
02
0:

#1135000
1!
b10111111 ,
11
12
1:
b1000000 E

#1140000
0!
b111111 ,
01
02
0:

#1145000
1!
b10111111 ,
11
12
1:
b1000001 E

#1150000
0!
b111111 ,
01
02
0:

#1155000
1!
b10111111 ,
11
12
1:
b1000010 E

#1160000
0!
b111111 ,
01
02
0:

#1165000
1!
b10111111 ,
11
12
1:
b1000011 E

#1170000
0!
b111111 ,
01
02
0:

#1175000
1!
b10111111 ,
11
12
1:
b1000100 E

#1180000
0!
b111111 ,
01
02
0:

#1185000
1!
b10111111 ,
11
12
1:
b1000101 E

#1190000
0!
b111111 ,
01
02
0:

#1195000
1!
b10111111 ,
11
12
1:
b1000110 E

#1200000
0!
b111111 ,
01
02
0:

#1205000
1!
b10111111 ,
11
12
1:
b1000111 E

#1210000
0!
b111111 ,
01
02
0:

#1215000
1!
b10111111 ,
11
12
1:
b1001000 E

#1220000
0!
b111111 ,
01
02
0:

#1225000
1!
b10111111 ,
11
12
1:
b1001001 E

#1230000
0!
b111111 ,
01
02
0:

#1235000
1!
b10111111 ,
11
12
1:
b1001010 E

#1240000
0!
b111111 ,
01
02
0:

#1245000
1!
b10111111 ,
11
12
1:
b1001011 E

#1250000
0!
b111111 ,
01
02
0:

#1255000
1!
b10111111 ,
11
12
1:
b1001100 E

#1260000
0!
b111111 ,
01
02
0:

#1265000
1!
b10111111 ,
11
12
1:
b1001101 E

#1270000
0!
b111111 ,
01
02
0:

#1275000
1!
b10111111 ,
11
12
1:
b1001110 E

#1280000
0!
b111111 ,
01
02
0:

#1285000
1!
b10111111 ,
11
12
1:
b1001111 E

#1290000
0!
b111111 ,
01
02
0:

#1295000
1!
b10111111 ,
11
12
1:
b1010000 E

#1300000
0!
b111111 ,
01
02
0:

#1305000
1!
b10111111 ,
11
12
1:
b1010001 E

#1310000
0!
b111111 ,
01
02
0:

#1315000
1!
b10111111 ,
11
12
1:
b1010010 E

#1320000
0!
b111111 ,
01
02
0:

#1325000
1!
b10111111 ,
11
12
1:
b1010011 E

#1330000
0!
b111111 ,
01
02
0:

#1335000
1!
b10111111 ,
11
12
1:
b1010100 E

#1340000
0!
b111111 ,
01
02
0:

#1345000
1!
b10111111 ,
11
12
1:
b1010101 E

#1350000
0!
b111111 ,
01
02
0:

#1355000
1!
b10111111 ,
11
12
1:
b1010110 E

#1360000
0!
b111111 ,
01
02
0:

#1365000
1!
b10111111 ,
11
12
1:
b1010111 E

#1370000
0!
b111111 ,
01
02
0:

#1375000
1!
b10111111 ,
11
12
1:
b1011000 E

#1380000
0!
b111111 ,
01
02
0:

#1385000
1!
b10111111 ,
11
12
1:
b1011001 E

#1390000
0!
b111111 ,
01
02
0:

#1395000
1!
b10111111 ,
11
12
1:
b1011010 E

#1400000
0!
b111111 ,
01
02
0:

#1405000
1!
b10111111 ,
11
12
1:
b1011011 E

#1410000
0!
b111111 ,
01
02
0:

#1415000
1!
b10111111 ,
11
12
1:
b1011100 E

#1420000
0!
b111111 ,
01
02
0:

#1425000
1!
b10111111 ,
11
12
1:
b1011101 E

#1430000
0!
b111111 ,
01
02
0:

#1435000
1!
b10111111 ,
11
12
1:
b1011110 E

#1440000
0!
b111111 ,
01
02
0:

#1445000
1!
b10111111 ,
11
12
1:
b1011111 E

#1450000
0!
b111111 ,
01
02
0:

#1455000
1!
b10111111 ,
11
12
1:
b1100000 E

#1460000
0!
b111111 ,
01
02
0:

#1465000
1!
b10111111 ,
11
12
1:
b1100001 E

#1470000
0!
b111111 ,
01
02
0:

#1475000
1!
b10111111 ,
11
12
1:
b1100010 E

#1480000
0!
b111111 ,
01
02
0:

#1485000
1!
b10111111 ,
11
12
1:
b1100011 E

#1490000
0!
b111111 ,
01
02
0:

#1495000
1!
b10000110 ,
11
12
1:
b1 D
b0 E
b1 F
b1 H
b110 J
b110 K
b1 N
b1 O

#1500000
0!
b111111 ,
01
02
0:
b111111 K

#1505000
1!
b10000110 ,
11
12
1:
b1 E
b110 K

#1510000
0!
b111111 ,
01
02
0:
b111111 K

#1515000
1!
b10000110 ,
11
12
1:
b10 E
b110 K

#1520000
0!
b111111 ,
01
02
0:
b111111 K

#1525000
1!
b10000110 ,
11
12
1:
b11 E
b110 K

#1530000
0!
b111111 ,
01
02
0:
b111111 K

#1535000
1!
b10000110 ,
11
12
1:
b100 E
b110 K

#1540000
0!
b111111 ,
01
02
0:
b111111 K

#1545000
1!
b10000110 ,
11
12
1:
b101 E
b110 K

#1550000
0!
b111111 ,
01
02
0:
b111111 K

#1555000
1!
b10000110 ,
11
12
1:
b110 E
b110 K

#1560000
0!
b111111 ,
01
02
0:
b111111 K

#1565000
1!
b10000110 ,
11
12
1:
b111 E
b110 K

#1570000
0!
b111111 ,
01
02
0:
b111111 K

#1575000
1!
b10000110 ,
11
12
1:
b1000 E
b110 K

#1580000
0!
b111111 ,
01
02
0:
b111111 K

#1585000
1!
b10000110 ,
11
12
1:
b1001 E
b110 K

#1590000
0!
b111111 ,
01
02
0:
b111111 K

#1595000
1!
b10000110 ,
11
12
1:
b1010 E
b110 K

#1600000
0!
b111111 ,
01
02
0:
b111111 K

#1605000
1!
b10000110 ,
11
12
1:
b1011 E
b110 K

#1610000
0!
b111111 ,
01
02
0:
b111111 K

#1615000
1!
b10000110 ,
11
12
1:
b1100 E
b110 K

#1620000
0!
b111111 ,
01
02
0:
b111111 K

#1625000
1!
b10000110 ,
11
12
1:
b1101 E
b110 K

#1630000
0!
b111111 ,
01
02
0:
b111111 K

#1635000
1!
b10000110 ,
11
12
1:
b1110 E
b110 K

#1640000
0!
b111111 ,
01
02
0:
b111111 K

#1645000
1!
b10000110 ,
11
12
1:
b1111 E
b110 K

#1650000
0!
b111111 ,
01
02
0:
b111111 K

#1655000
1!
b10000110 ,
11
12
1:
b10000 E
b110 K

#1660000
0!
b111111 ,
01
02
0:
b111111 K

#1665000
1!
b10000110 ,
11
12
1:
b10001 E
b110 K

#1670000
0!
b111111 ,
01
02
0:
b111111 K

#1675000
1!
b10000110 ,
11
12
1:
b10010 E
b110 K

#1680000
0!
b111111 ,
01
02
0:
b111111 K

#1685000
1!
b10000110 ,
11
12
1:
b10011 E
b110 K

#1690000
0!
b111111 ,
01
02
0:
b111111 K

#1695000
1!
b10000110 ,
11
12
1:
b10100 E
b110 K

#1700000
0!
b111111 ,
01
02
0:
b111111 K

#1705000
1!
b10000110 ,
11
12
1:
b10101 E
b110 K

#1710000
0!
b111111 ,
01
02
0:
b111111 K

#1715000
1!
b10000110 ,
11
12
1:
b10110 E
b110 K

#1720000
0!
b111111 ,
01
02
0:
b111111 K

#1725000
1!
b10000110 ,
11
12
1:
b10111 E
b110 K

#1730000
0!
b111111 ,
01
02
0:
b111111 K

#1735000
1!
b10000110 ,
11
12
1:
b11000 E
b110 K

#1740000
0!
b111111 ,
01
02
0:
b111111 K

#1745000
1!
b10000110 ,
11
12
1:
b11001 E
b110 K

#1750000
0!
b111111 ,
01
02
0:
b111111 K

#1755000
1!
b10000110 ,
11
12
1:
b11010 E
b110 K

#1760000
0!
b111111 ,
01
02
0:
b111111 K

#1765000
1!
b10000110 ,
11
12
1:
b11011 E
b110 K

#1770000
0!
b111111 ,
01
02
0:
b111111 K

#1775000
1!
b10000110 ,
11
12
1:
b11100 E
b110 K

#1780000
0!
b111111 ,
01
02
0:
b111111 K

#1785000
1!
b10000110 ,
11
12
1:
b11101 E
b110 K

#1790000
0!
b111111 ,
01
02
0:
b111111 K

#1795000
1!
b10000110 ,
11
12
1:
b11110 E
b110 K

#1800000
0!
b111111 ,
01
02
0:
b111111 K

#1805000
1!
b10000110 ,
11
12
1:
b11111 E
b110 K

#1810000
0!
b111111 ,
01
02
0:
b111111 K

#1815000
1!
b10000110 ,
11
12
1:
b100000 E
b110 K

#1820000
0!
b111111 ,
01
02
0:
b111111 K

#1825000
1!
b10000110 ,
11
12
1:
b100001 E
b110 K

#1830000
0!
b111111 ,
01
02
0:
b111111 K

#1835000
1!
b10000110 ,
11
12
1:
b100010 E
b110 K

#1840000
0!
b111111 ,
01
02
0:
b111111 K

#1845000
1!
b10000110 ,
11
12
1:
b100011 E
b110 K

#1850000
0!
b111111 ,
01
02
0:
b111111 K

#1855000
1!
b10000110 ,
11
12
1:
b100100 E
b110 K

#1860000
0!
b111111 ,
01
02
0:
b111111 K

#1865000
1!
b10000110 ,
11
12
1:
b100101 E
b110 K

#1870000
0!
b111111 ,
01
02
0:
b111111 K

#1875000
1!
b10000110 ,
11
12
1:
b100110 E
b110 K

#1880000
0!
b111111 ,
01
02
0:
b111111 K

#1885000
1!
b10000110 ,
11
12
1:
b100111 E
b110 K

#1890000
0!
b111111 ,
01
02
0:
b111111 K

#1895000
1!
b10000110 ,
11
12
1:
b101000 E
b110 K

#1900000
0!
b111111 ,
01
02
0:
b111111 K

#1905000
1!
b10000110 ,
11
12
1:
b101001 E
b110 K

#1910000
0!
b111111 ,
01
02
0:
b111111 K

#1915000
1!
b10000110 ,
11
12
1:
b101010 E
b110 K

#1920000
0!
b111111 ,
01
02
0:
b111111 K

#1925000
1!
b10000110 ,
11
12
1:
b101011 E
b110 K

#1930000
0!
b111111 ,
01
02
0:
b111111 K

#1935000
1!
b10000110 ,
11
12
1:
b101100 E
b110 K

#1940000
0!
b111111 ,
01
02
0:
b111111 K

#1945000
1!
b10000110 ,
11
12
1:
b101101 E
b110 K

#1950000
0!
b111111 ,
01
02
0:
b111111 K

#1955000
1!
b10000110 ,
11
12
1:
b101110 E
b110 K

#1960000
0!
b111111 ,
01
02
0:
b111111 K

#1965000
1!
b10000110 ,
11
12
1:
b101111 E
b110 K

#1970000
0!
b111111 ,
01
02
0:
b111111 K

#1975000
1!
b10000110 ,
11
12
1:
b110000 E
b110 K

#1980000
0!
b111111 ,
01
02
0:
b111111 K

#1985000
1!
b10000110 ,
11
12
1:
b110001 E
b110 K

#1990000
0!
b111111 ,
01
02
0:
b111111 K

#1995000
1!
b10000110 ,
11
12
1:
b110010 E
b110 K

#2000000
0!
b111111 ,
01
02
0:
b111111 K

#2005000
1!
b10000110 ,
11
12
1:
b110011 E
b110 K

#2010000
0!
b111111 ,
01
02
0:
b111111 K

#2015000
1!
b10000110 ,
11
12
1:
b110100 E
b110 K

#2020000
0!
b111111 ,
01
02
0:
b111111 K

#2025000
1!
b10000110 ,
11
12
1:
b110101 E
b110 K

#2030000
0!
b111111 ,
01
02
0:
b111111 K

#2035000
1!
b10000110 ,
11
12
1:
b110110 E
b110 K

#2040000
0!
b111111 ,
01
02
0:
b111111 K

#2045000
1!
b10000110 ,
11
12
1:
b110111 E
b110 K

#2050000
0!
b111111 ,
01
02
0:
b111111 K

#2055000
1!
b10000110 ,
11
12
1:
b111000 E
b110 K

#2060000
0!
b111111 ,
01
02
0:
b111111 K

#2065000
1!
b10000110 ,
11
12
1:
b111001 E
b110 K

#2070000
0!
b111111 ,
01
02
0:
b111111 K

#2075000
1!
b10000110 ,
11
12
1:
b111010 E
b110 K

#2080000
0!
b111111 ,
01
02
0:
b111111 K

#2085000
1!
b10000110 ,
11
12
1:
b111011 E
b110 K

#2090000
0!
b111111 ,
01
02
0:
b111111 K

#2095000
1!
b10000110 ,
11
12
1:
b111100 E
b110 K

#2100000
0!
b111111 ,
01
02
0:
b111111 K

#2105000
1!
b10000110 ,
11
12
1:
b111101 E
b110 K

#2110000
0!
b111111 ,
01
02
0:
b111111 K

#2115000
1!
b10000110 ,
11
12
1:
b111110 E
b110 K

#2120000
0!
b111111 ,
01
02
0:
b111111 K

#2125000
1!
b10000110 ,
11
12
1:
b111111 E
b110 K

#2130000
0!
b111111 ,
01
02
0:
b111111 K

#2135000
1!
b10000110 ,
11
12
1:
b1000000 E
b110 K

#2140000
0!
b111111 ,
01
02
0:
b111111 K

#2145000
1!
b10000110 ,
11
12
1:
b1000001 E
b110 K

#2150000
0!
b111111 ,
01
02
0:
b111111 K

#2155000
1!
b10000110 ,
11
12
1:
b1000010 E
b110 K

#2160000
0!
b111111 ,
01
02
0:
b111111 K

#2165000
1!
b10000110 ,
11
12
1:
b1000011 E
b110 K

#2170000
0!
b111111 ,
01
02
0:
b111111 K

#2175000
1!
b10000110 ,
11
12
1:
b1000100 E
b110 K

#2180000
0!
b111111 ,
01
02
0:
b111111 K

#2185000
1!
b10000110 ,
11
12
1:
b1000101 E
b110 K

#2190000
0!
b111111 ,
01
02
0:
b111111 K

#2195000
1!
b10000110 ,
11
12
1:
b1000110 E
b110 K

#2200000
0!
b111111 ,
01
02
0:
b111111 K

#2205000
1!
b10000110 ,
11
12
1:
b1000111 E
b110 K

#2210000
0!
b111111 ,
01
02
0:
b111111 K

#2215000
1!
b10000110 ,
11
12
1:
b1001000 E
b110 K

#2220000
0!
b111111 ,
01
02
0:
b111111 K

#2225000
1!
b10000110 ,
11
12
1:
b1001001 E
b110 K

#2230000
0!
b111111 ,
01
02
0:
b111111 K

#2235000
1!
b10000110 ,
11
12
1:
b1001010 E
b110 K

#2240000
0!
b111111 ,
01
02
0:
b111111 K

#2245000
1!
b10000110 ,
11
12
1:
b1001011 E
b110 K

#2250000
0!
b111111 ,
01
02
0:
b111111 K

#2255000
1!
b10000110 ,
11
12
1:
b1001100 E
b110 K

#2260000
0!
b111111 ,
01
02
0:
b111111 K

#2265000
1!
b10000110 ,
11
12
1:
b1001101 E
b110 K

#2270000
0!
b111111 ,
01
02
0:
b111111 K

#2275000
1!
b10000110 ,
11
12
1:
b1001110 E
b110 K

#2280000
0!
b111111 ,
01
02
0:
b111111 K

#2285000
1!
b10000110 ,
11
12
1:
b1001111 E
b110 K

#2290000
0!
b111111 ,
01
02
0:
b111111 K

#2295000
1!
b10000110 ,
11
12
1:
b1010000 E
b110 K

#2300000
0!
b111111 ,
01
02
0:
b111111 K

#2305000
1!
b10000110 ,
11
12
1:
b1010001 E
b110 K

#2310000
0!
b111111 ,
01
02
0:
b111111 K

#2315000
1!
b10000110 ,
11
12
1:
b1010010 E
b110 K

#2320000
0!
b111111 ,
01
02
0:
b111111 K

#2325000
1!
b10000110 ,
11
12
1:
b1010011 E
b110 K

#2330000
0!
b111111 ,
01
02
0:
b111111 K

#2335000
1!
b10000110 ,
11
12
1:
b1010100 E
b110 K

#2340000
0!
b111111 ,
01
02
0:
b111111 K

#2345000
1!
b10000110 ,
11
12
1:
b1010101 E
b110 K

#2350000
0!
b111111 ,
01
02
0:
b111111 K

#2355000
1!
b10000110 ,
11
12
1:
b1010110 E
b110 K

#2360000
0!
b111111 ,
01
02
0:
b111111 K

#2365000
1!
b10000110 ,
11
12
1:
b1010111 E
b110 K

#2370000
0!
b111111 ,
01
02
0:
b111111 K

#2375000
1!
b10000110 ,
11
12
1:
b1011000 E
b110 K

#2380000
0!
b111111 ,
01
02
0:
b111111 K

#2385000
1!
b10000110 ,
11
12
1:
b1011001 E
b110 K

#2390000
0!
b111111 ,
01
02
0:
b111111 K

#2395000
1!
b10000110 ,
11
12
1:
b1011010 E
b110 K

#2400000
0!
b111111 ,
01
02
0:
b111111 K

#2405000
1!
b10000110 ,
11
12
1:
b1011011 E
b110 K

#2410000
0!
b111111 ,
01
02
0:
b111111 K

#2415000
1!
b10000110 ,
11
12
1:
b1011100 E
b110 K

#2420000
0!
b111111 ,
01
02
0:
b111111 K

#2425000
1!
b10000110 ,
11
12
1:
b1011101 E
b110 K

#2430000
0!
b111111 ,
01
02
0:
b111111 K

#2435000
1!
b10000110 ,
11
12
1:
b1011110 E
b110 K

#2440000
0!
b111111 ,
01
02
0:
b111111 K

#2445000
1!
b10000110 ,
11
12
1:
b1011111 E
b110 K

#2450000
0!
b111111 ,
01
02
0:
b111111 K

